14 09 2022 17 42 28 281 564
14 09 2022 17 42 28 178 522
14 09 2022 17 42 29 336 539
14 09 2022 17 42 30 782 61
14 09 2022 17 42 31 623 36
14 09 2022 17 42 31 414 25
14 09 2022 17 42 32 114 17
14 09 2022 17 42 32 26 49
14 09 2022 17 42 33 653 641
14 09 2022 17 42 34 961 478
14 09 2022 17 42 35 954 193
14 09 2022 17 42 35 870 64
14 09 2022 17 42 36 631 71
14 09 2022 17 42 36 420 24
14 09 2022 17 42 37 208 39
14 09 2022 17 42 38 37 64
14 09 2022 17 42 39 238 577
14 09 2022 17 42 39 562 602
14 09 2022 17 42 40 333 507
14 09 2022 17 42 41 575 103
14 09 2022 17 42 46 285 514
14 09 2022 17 42 47 127 532
14 09 2022 17 42 47 356 589
14 09 2022 17 42 48 676 646
14 09 2022 17 42 49 676 584
14 09 2022 17 42 50 470 618
14 09 2022 17 42 51 268 599
14 09 2022 17 42 52 745 40
14 09 2022 17 42 53 607 30
14 09 2022 17 53 26 677 44
14 09 2022 17 53 27 501 45
14 09 2022 17 53 28 157 31
14 09 2022 17 53 30 90 41
14 09 2022 17 53 30 30 39
14 09 2022 17 53 31 24 228
14 09 2022 17 53 33 40 347
14 09 2022 17 53 34 71 533
14 09 2022 17 53 36 517 29
14 09 2022 17 53 37 725 102
14 09 2022 17 53 42 830 167
14 09 2022 17 54 21 931 462
14 09 2022 17 54 51 1005 16
14 09 2022 17 54 52 837 41
14 09 2022 17 54 54 761 479
14 09 2022 17 55 14 10 11
14 09 2022 17 55 17 647 487
14 09 2022 17 55 51 22 24
14 09 2022 17 55 52 50 24
14 09 2022 17 55 53 50 24
14 09 2022 17 55 55 50 24
14 09 2022 17 55 56 50 24
14 09 2022 17 55 57 50 24
14 09 2022 17 55 58 50 24
14 09 2022 17 55 59 50 24
14 09 2022 17 56 01 704 454
14 09 2022 17 57 18 1003 733
14 09 2022 17 57 20 998 765
14 09 2022 17 57 21 973 584
14 09 2022 17 57 24 1008 748
14 09 2022 17 57 27 756 404
14 09 2022 17 58 00 474 285
14 09 2022 17 58 06 245 489
14 09 2022 17 58 07 391 553
14 09 2022 17 58 08 547 474
14 09 2022 17 58 09 697 266
14 09 2022 17 58 11 471 408
14 09 2022 17 58 12 321 462
14 09 2022 17 58 14 71 738
14 09 2022 17 58 14 71 738
14 09 2022 17 58 14 71 738
14 09 2022 17 58 15 200 649
14 09 2022 17 58 16 436 457
14 09 2022 17 58 20 134 249
14 09 2022 17 58 23 325 271
14 09 2022 17 58 25 376 275
14 09 2022 17 58 28 361 298
14 09 2022 17 58 29 293 291
14 09 2022 17 58 32 407 324
14 09 2022 17 58 33 691 134
14 09 2022 17 58 37 606 157
14 09 2022 17 58 39 347 322
14 09 2022 17 58 41 140 202
14 09 2022 17 58 43 168 303
14 09 2022 17 58 44 356 309
14 09 2022 17 58 46 237 290
14 09 2022 17 58 48 581 305
14 09 2022 17 58 49 738 47
14 09 2022 17 58 50 652 39
14 09 2022 17 58 51 566 28
14 09 2022 17 59 04 334 83
14 09 2022 17 59 07 816 148
14 09 2022 17 59 21 425 362
14 09 2022 17 59 32 403 319
14 09 2022 17 59 35 383 344
14 09 2022 17 59 36 383 344
14 09 2022 18 00 16 392 315
14 09 2022 18 00 17 402 324
14 09 2022 18 00 18 428 372
14 09 2022 18 00 22 801 77
14 09 2022 18 00 26 912 110
14 09 2022 18 00 28 956 187
14 09 2022 18 00 30 1004 170
14 09 2022 18 00 58 628 135
14 09 2022 18 01 08 495 164
14 09 2022 18 01 10 424 119
14 09 2022 18 01 12 264 498
14 09 2022 18 01 14 785 226
14 09 2022 18 01 24 922 280
14 09 2022 18 01 28 949 341
14 09 2022 18 01 29 860 146
14 09 2022 18 01 34 612 306
14 09 2022 18 01 35 612 306
14 09 2022 18 01 38 977 480
14 09 2022 18 01 41 692 435
14 09 2022 18 01 43 647 409
14 09 2022 18 01 46 702 136
14 09 2022 18 01 47 664 91
14 09 2022 18 01 48 628 60
14 09 2022 18 01 50 338 63
14 09 2022 18 02 17 62 139
14 09 2022 18 02 18 62 139
14 09 2022 18 02 18 62 139
14 09 2022 18 02 19 62 139
14 09 2022 18 02 24 416 434
14 09 2022 18 02 55 26 443
14 09 2022 18 02 56 50 443
14 09 2022 18 03 00 636 359
14 09 2022 18 03 55 890 248
14 09 2022 18 04 11 276 196
14 09 2022 18 04 12 285 451
14 09 2022 18 04 15 278 190
14 09 2022 18 04 17 281 453
14 09 2022 18 04 20 436 61
14 09 2022 18 04 55 871 227
14 09 2022 18 04 55 871 227
14 09 2022 18 04 56 866 163
14 09 2022 18 04 56 866 163
14 09 2022 18 04 57 816 96
14 09 2022 18 04 57 816 96
14 09 2022 18 04 58 745 39
14 09 2022 18 04 58 745 39
14 09 2022 18 04 59 607 23
14 09 2022 18 04 59 607 23
14 09 2022 18 05 00 449 36
14 09 2022 18 05 00 449 36
14 09 2022 18 05 03 351 448
14 09 2022 18 05 03 351 448
14 09 2022 18 05 34 899 659
14 09 2022 18 05 34 899 659
14 09 2022 18 05 38 360 125
14 09 2022 18 05 38 360 125
14 09 2022 18 05 48 883 195
14 09 2022 18 05 48 883 195
14 09 2022 18 05 49 883 195
14 09 2022 18 05 49 883 195
14 09 2022 18 05 50 883 195
14 09 2022 18 05 50 883 195
14 09 2022 18 05 51 380 378
14 09 2022 18 05 51 380 378
14 09 2022 18 06 03 29 41
14 09 2022 18 06 03 29 41
14 09 2022 18 06 04 97 31
14 09 2022 18 06 04 97 31
14 09 2022 18 06 06 16 12
14 09 2022 18 06 06 16 12
14 09 2022 18 06 07 50 12
14 09 2022 18 06 07 50 12
14 09 2022 18 06 12 11 12
14 09 2022 18 06 12 11 12
14 09 2022 18 06 13 50 12
14 09 2022 18 06 13 50 12
14 09 2022 18 06 13 50 12
14 09 2022 18 06 13 50 12
14 09 2022 18 06 14 50 12
14 09 2022 18 06 14 50 12
14 09 2022 18 06 15 50 12
14 09 2022 18 06 15 50 12
14 09 2022 18 07 41 464 222
14 09 2022 18 07 41 464 222
14 09 2022 18 09 19 211 178
14 09 2022 18 09 20 141 123
14 09 2022 18 09 21 488 224
14 09 2022 18 09 21 423 297
14 09 2022 18 09 22 313 359
14 09 2022 18 09 23 194 332
14 09 2022 18 09 23 143 315
14 09 2022 18 09 27 1011 17
14 09 2022 18 09 27 973 17
14 09 2022 18 09 28 973 17
14 09 2022 18 09 29 973 17
14 09 2022 18 09 30 973 17
14 09 2022 18 09 30 973 17
14 09 2022 18 09 36 3 3
14 09 2022 18 10 27 81 22
14 09 2022 18 10 30 8 286
14 09 2022 18 34 46 12 250
14 09 2022 18 34 47 352 198
14 09 2022 18 34 49 353 205
14 09 2022 18 36 10 414 312
14 09 2022 18 36 12 365 60
14 09 2022 18 39 41 763 153
14 09 2022 18 39 48 793 406
14 09 2022 18 39 49 793 406
14 09 2022 18 39 58 810 336
14 09 2022 18 40 13 423 377
14 09 2022 18 40 17 423 377
14 09 2022 18 40 21 496 558
14 09 2022 18 40 24 56 128
14 09 2022 18 40 25 72 388
14 09 2022 18 40 27 65 125
14 09 2022 18 40 29 84 391
14 09 2022 18 40 30 587 390
14 09 2022 18 40 31 662 393
14 09 2022 18 40 33 599 115
14 09 2022 18 43 14 59 122
14 09 2022 18 43 16 64 392
14 09 2022 18 43 21 373 67
14 09 2022 18 43 22 607 84
14 09 2022 18 43 23 591 86
14 09 2022 18 43 29 393 71
14 09 2022 18 43 31 222 245
14 09 2022 18 43 33 227 516
14 09 2022 18 43 35 61 325
15 09 2022 19 31 37 132 233
15 09 2022 19 31 37 108 238
15 09 2022 19 31 38 66 200
15 09 2022 19 31 41 485 138
15 09 2022 19 31 43 168 164
15 09 2022 19 31 44 266 114
15 09 2022 19 32 30 248 168
15 09 2022 19 34 25 788 122
15 09 2022 19 34 35 674 547
15 09 2022 19 34 44 477 49
15 09 2022 19 35 36 523 104
15 09 2022 19 35 38 300 447
15 09 2022 19 35 43 430 451
15 09 2022 19 35 47 137 436
15 09 2022 19 35 56 804 342
15 09 2022 19 35 59 609 404
15 09 2022 19 35 59 609 404
15 09 2022 19 36 00 652 313
15 09 2022 19 36 01 648 316
15 09 2022 19 36 01 648 316
15 09 2022 19 36 02 756 265
15 09 2022 19 36 02 771 252
15 09 2022 19 36 02 773 256
15 09 2022 19 36 03 772 257
15 09 2022 19 36 03 761 302
15 09 2022 19 36 03 792 229
15 09 2022 19 36 10 205 726
15 09 2022 19 36 11 105 722
15 09 2022 19 36 23 649 315
15 09 2022 19 36 24 649 315
15 09 2022 19 36 24 649 315
15 09 2022 19 36 24 649 315
15 09 2022 19 36 24 649 315
15 09 2022 19 36 25 193 186
15 09 2022 19 36 27 164 447
15 09 2022 19 36 34 597 303
15 09 2022 19 36 35 208 454
15 09 2022 19 36 40 202 545
15 09 2022 19 36 42 601 303
15 09 2022 19 36 44 201 650
15 09 2022 19 36 48 88 638
15 09 2022 19 37 04 593 298
15 09 2022 19 37 04 594 237
15 09 2022 19 37 05 603 304
15 09 2022 19 37 06 603 304
15 09 2022 19 37 06 603 304
15 09 2022 19 37 06 603 304
15 09 2022 19 37 06 603 304
15 09 2022 19 37 06 603 304
15 09 2022 19 37 07 603 304
15 09 2022 19 38 46 700 126
15 09 2022 19 38 49 69 344
15 09 2022 19 38 50 70 333
15 09 2022 19 38 50 71 333
15 09 2022 19 38 52 384 552
15 09 2022 19 38 53 384 552
15 09 2022 19 38 53 384 552
15 09 2022 19 38 54 84 347
15 09 2022 19 38 56 100 379
15 09 2022 19 39 00 413 83
15 09 2022 19 39 39 522 399
15 09 2022 19 39 39 522 399
15 09 2022 19 39 39 522 399
15 09 2022 19 39 40 524 399
15 09 2022 19 39 40 524 399
15 09 2022 19 39 42 491 391
15 09 2022 19 39 42 482 401
15 09 2022 19 39 43 482 401
15 09 2022 19 39 43 424 523
15 09 2022 19 40 17 365 394
15 09 2022 19 40 18 365 394
15 09 2022 19 40 18 365 394
15 09 2022 19 40 18 365 394
15 09 2022 19 40 18 365 394
15 09 2022 19 40 19 365 394
15 09 2022 19 40 20 350 398
15 09 2022 19 40 20 350 398
15 09 2022 19 40 21 382 424
15 09 2022 19 40 22 596 455
15 09 2022 19 40 22 461 600
15 09 2022 19 40 23 386 324
15 09 2022 19 40 24 322 159
15 09 2022 19 40 28 642 163
15 09 2022 19 40 30 500 397
15 09 2022 19 40 33 353 395
15 09 2022 19 40 34 353 396
15 09 2022 19 40 34 353 396
15 09 2022 19 40 34 353 396
15 09 2022 19 40 34 353 396
15 09 2022 19 40 35 827 83
15 09 2022 19 40 36 485 103
15 09 2022 19 41 04 288 608
15 09 2022 19 41 06 267 412
15 09 2022 19 41 07 251 410
15 09 2022 19 41 11 255 406
15 09 2022 19 41 11 255 406
15 09 2022 19 41 11 255 406
15 09 2022 19 41 11 255 406
15 09 2022 19 41 12 428 414
15 09 2022 19 41 12 428 414
15 09 2022 19 41 12 428 413
15 09 2022 19 41 12 406 418
15 09 2022 19 41 13 406 414
15 09 2022 19 41 13 384 422
15 09 2022 19 41 14 384 422
15 09 2022 19 41 16 174 130
15 09 2022 19 41 17 40 39
15 09 2022 19 41 19 195 319
15 09 2022 19 41 21 57 357
15 09 2022 19 41 22 298 709
15 09 2022 19 41 25 48 110
15 09 2022 19 41 26 9 72
15 09 2022 19 41 33 910 137
15 09 2022 19 41 35 559 118
15 09 2022 19 41 48 214 391
15 09 2022 19 41 49 214 391
15 09 2022 19 41 50 194 395
15 09 2022 19 41 51 194 396
15 09 2022 19 41 52 194 393
15 09 2022 19 41 52 194 393
15 09 2022 19 41 52 194 393
15 09 2022 19 41 53 194 393
15 09 2022 19 41 53 194 393
15 09 2022 19 41 54 194 393
15 09 2022 19 41 55 194 393
15 09 2022 19 41 56 194 393
15 09 2022 19 41 57 310 212
15 09 2022 19 41 59 306 78
15 09 2022 19 42 00 680 37
15 09 2022 19 42 03 47 30
15 09 2022 19 42 04 123 150
15 09 2022 19 42 05 126 151
15 09 2022 19 42 05 126 151
15 09 2022 19 42 05 126 151
15 09 2022 19 42 08 223 11
15 09 2022 19 42 10 922 245
15 09 2022 19 42 11 640 263
15 09 2022 19 42 11 298 271
15 09 2022 19 42 13 226 321
15 09 2022 19 42 14 246 580
15 09 2022 19 42 16 14 259
15 09 2022 19 42 17 365 270
15 09 2022 19 43 53 27 705
15 09 2022 19 43 54 50 584
15 09 2022 19 43 55 50 584
15 09 2022 19 43 56 50 584
15 09 2022 19 43 57 29 696
15 09 2022 19 43 57 33 701
15 09 2022 19 43 58 50 584
15 09 2022 19 43 59 19 723
15 09 2022 19 44 03 245 331
15 09 2022 19 44 12 354 656
15 09 2022 19 44 35 413 149
15 09 2022 19 44 37 384 145
15 09 2022 19 44 39 454 170
15 09 2022 19 44 40 467 159
15 09 2022 19 44 40 467 159
15 09 2022 19 44 41 805 170
15 09 2022 19 44 42 528 148
15 09 2022 19 44 43 521 146
15 09 2022 19 44 43 378 145
15 09 2022 19 44 45 450 160
15 09 2022 19 44 45 457 158
15 09 2022 19 44 45 457 158
15 09 2022 19 44 46 588 299
15 09 2022 19 44 47 464 322
15 09 2022 19 44 47 689 163
15 09 2022 19 44 48 689 163
15 09 2022 19 44 48 588 299
15 09 2022 19 44 48 588 299
15 09 2022 19 44 48 588 299
15 09 2022 19 44 49 572 343
15 09 2022 19 44 50 519 433
15 09 2022 19 44 54 579 465
15 09 2022 19 44 55 632 262
15 09 2022 19 44 55 567 261
15 09 2022 19 44 56 225 322
15 09 2022 19 44 57 238 565
15 09 2022 19 44 58 231 318
15 09 2022 19 45 00 239 580
15 09 2022 19 45 00 274 618
15 09 2022 19 45 00 274 618
15 09 2022 19 45 02 166 199
15 09 2022 19 45 03 22 264
15 09 2022 19 45 04 40 529
15 09 2022 19 45 05 607 153
15 09 2022 19 45 06 604 113
15 09 2022 19 45 06 580 102
15 09 2022 19 45 07 580 102
15 09 2022 19 45 08 89 145
15 09 2022 19 45 09 120 398
15 09 2022 19 45 10 81 148
15 09 2022 19 45 11 112 414
15 09 2022 19 45 14 306 147
15 09 2022 19 45 19 298 196
15 09 2022 19 45 20 244 262
15 09 2022 19 45 25 36 696
15 09 2022 19 47 57 25 231
15 09 2022 19 47 58 183 87
15 09 2022 19 47 59 188 142
15 09 2022 19 49 15 599 387
15 09 2022 19 49 17 496 329
15 09 2022 19 49 19 422 403
15 09 2022 19 49 21 282 74
15 09 2022 19 49 22 526 529
15 09 2022 19 49 23 644 400
15 09 2022 19 49 30 816 161
15 09 2022 19 49 34 498 330
15 09 2022 21 08 36 242 80
15 09 2022 21 08 39 197 559
15 09 2022 21 08 42 392 137
15 09 2022 21 08 58 497 174
15 09 2022 21 09 07 867 161
15 09 2022 21 09 15 821 616
15 09 2022 21 09 17 558 615
15 09 2022 21 09 18 558 615
15 09 2022 21 09 18 558 615
15 09 2022 21 09 18 558 615
15 09 2022 21 09 18 558 615
15 09 2022 21 09 20 451 111
15 09 2022 21 09 23 221 98
15 09 2022 21 09 29 809 619
15 09 2022 21 09 30 811 642
15 09 2022 21 09 32 278 76
15 09 2022 21 09 36 478 446
15 09 2022 21 09 37 480 481
15 09 2022 21 09 37 476 551
15 09 2022 21 09 39 501 582
15 09 2022 21 09 41 603 174
15 09 2022 21 09 42 604 248
15 09 2022 21 09 43 588 342
15 09 2022 21 09 54 270 337
15 09 2022 21 09 54 270 337
15 09 2022 21 09 56 632 344
15 09 2022 21 09 57 632 344
15 09 2022 21 10 01 648 353
15 09 2022 21 10 01 648 353
15 09 2022 21 10 02 628 489
15 09 2022 21 10 02 629 489
15 09 2022 21 10 03 625 476
15 09 2022 21 10 03 625 476
15 09 2022 21 10 03 625 476
15 09 2022 21 10 04 592 480
15 09 2022 21 10 04 592 480
15 09 2022 21 10 04 592 480
15 09 2022 21 10 05 219 60
15 09 2022 21 10 08 605 477
15 09 2022 21 10 08 605 477
15 09 2022 21 10 21 876 379
15 09 2022 21 10 23 850 377
15 09 2022 21 10 23 838 377
15 09 2022 21 10 28 311 377
15 09 2022 21 10 29 43 520
15 09 2022 21 10 30 77 275
15 09 2022 21 11 13 355 295
15 09 2022 21 11 32 728 568
15 09 2022 21 11 34 542 275
15 09 2022 21 11 40 489 245
15 09 2022 21 11 43 118 138
15 09 2022 21 11 50 452 102
15 09 2022 21 16 27 513 564
15 09 2022 21 16 31 589 216
15 09 2022 21 16 35 604 378
15 09 2022 21 16 37 312 477
15 09 2022 21 16 39 301 189
15 09 2022 21 16 44 265 279
15 09 2022 21 16 44 265 280
15 09 2022 21 16 45 262 283
15 09 2022 21 16 47 273 336
15 09 2022 21 16 51 716 132
15 09 2022 21 16 54 719 85
15 09 2022 21 16 58 560 270
15 09 2022 21 17 00 183 142
15 09 2022 21 17 07 694 426
15 09 2022 21 17 08 708 435
15 09 2022 21 17 11 866 379
15 09 2022 21 17 14 902 402
15 09 2022 21 17 25 883 375
15 09 2022 21 17 25 883 375
15 09 2022 21 17 43 608 378
15 09 2022 21 17 44 608 378
15 09 2022 21 17 51 637 403
15 09 2022 21 17 52 219 372
15 09 2022 21 17 53 143 518
15 09 2022 21 17 54 440 271
15 09 2022 21 17 56 420 249
15 09 2022 21 17 57 406 270
15 09 2022 21 18 01 365 82
15 09 2022 21 18 05 729 166
15 09 2022 21 18 07 212 43
15 09 2022 21 18 09 659 704
15 09 2022 21 18 10 624 42
15 09 2022 21 18 12 798 362
15 09 2022 21 18 15 205 9
15 09 2022 21 18 19 6 146
15 09 2022 21 18 21 149 231
15 09 2022 21 18 24 52 355
15 09 2022 21 18 25 287 184
15 09 2022 21 18 27 305 458
15 09 2022 21 18 31 670 233
15 09 2022 21 18 41 594 389
15 09 2022 21 18 42 594 389
15 09 2022 21 18 43 594 389
15 09 2022 21 18 43 594 389
15 09 2022 21 18 44 594 389
15 09 2022 21 18 45 594 389
15 09 2022 21 18 45 594 389
15 09 2022 21 18 51 872 244
15 09 2022 21 18 54 712 82
15 09 2022 21 18 56 210 352
15 09 2022 21 18 59 55 330
15 09 2022 21 19 02 277 328
15 09 2022 21 19 04 98 236
15 09 2022 21 19 09 346 213
15 09 2022 21 19 11 97 243
15 09 2022 21 19 14 142 304
15 09 2022 21 19 18 39 95
15 09 2022 21 19 23 129 327
15 09 2022 21 19 24 132 326
15 09 2022 21 19 31 281 468
15 09 2022 21 19 32 125 323
15 09 2022 21 19 36 240 236
15 09 2022 21 19 36 240 237
15 09 2022 21 19 37 229 246
15 09 2022 21 19 38 229 246
15 09 2022 21 19 38 229 246
15 09 2022 21 19 39 229 246
15 09 2022 21 19 40 251 248
15 09 2022 21 19 42 209 255
15 09 2022 21 19 44 209 255
15 09 2022 21 19 45 202 373
15 09 2022 21 19 46 191 407
15 09 2022 21 19 50 790 599
15 09 2022 21 19 51 699 555
15 09 2022 21 19 52 316 131
15 09 2022 21 19 54 381 185
15 09 2022 21 19 58 311 142
15 09 2022 21 20 00 315 136
15 09 2022 21 20 03 270 236
15 09 2022 21 20 05 190 243
15 09 2022 21 20 07 168 267
15 09 2022 21 20 08 168 267
15 09 2022 21 20 08 168 267
15 09 2022 21 20 08 168 267
15 09 2022 21 20 08 168 267
15 09 2022 21 20 09 168 267
15 09 2022 21 20 10 143 253
15 09 2022 21 20 56 160 277
15 09 2022 21 21 01 210 160
15 09 2022 21 21 03 198 118
15 09 2022 21 21 04 194 251
15 09 2022 21 21 05 196 240
15 09 2022 21 21 07 164 192
15 09 2022 21 21 08 196 244
15 09 2022 21 21 18 160 220
15 09 2022 21 21 19 195 123
15 09 2022 21 21 21 158 215
15 09 2022 21 21 22 200 114
15 09 2022 21 21 22 268 127
15 09 2022 21 21 24 162 222
15 09 2022 21 21 25 165 238
15 09 2022 21 21 35 202 119
15 09 2022 21 21 41 244 122
15 09 2022 21 21 44 164 221
15 09 2022 21 21 47 201 121
15 09 2022 21 21 49 185 132
15 09 2022 21 21 54 282 85
15 09 2022 21 21 55 283 35
15 09 2022 21 21 58 178 166
15 09 2022 21 22 01 5 343
15 09 2022 21 22 01 118 349
15 09 2022 21 22 05 303 414
15 09 2022 21 22 06 520 240
15 09 2022 21 22 14 683 144
15 09 2022 21 22 14 671 149
15 09 2022 21 22 15 374 256
15 09 2022 21 22 19 760 394
15 09 2022 21 22 23 495 254
15 09 2022 21 22 27 80 281
15 09 2022 21 22 31 94 655
15 09 2022 21 22 33 591 348
15 09 2022 21 22 39 526 223
15 09 2022 21 22 42 335 349
15 09 2022 21 53 31 478 475
15 09 2022 21 53 36 651 552
15 09 2022 21 53 38 549 191
15 09 2022 21 53 45 749 83
15 09 2022 21 53 46 745 89
15 09 2022 21 53 50 334 280
15 09 2022 21 53 51 358 285
15 09 2022 21 53 52 347 285
15 09 2022 21 54 03 458 611
15 09 2022 21 54 26 454 118
15 09 2022 21 54 29 328 334
15 09 2022 21 54 30 328 334
15 09 2022 21 54 31 501 127
15 09 2022 21 54 33 492 248
15 09 2022 21 54 36 156 260
18 09 2022 11 01 29 984 181
18 09 2022 11 01 33 249 127
18 09 2022 11 01 35 256 389
18 09 2022 11 01 37 321 416
18 09 2022 11 01 40 421 201
18 09 2022 11 01 42 96 180
18 09 2022 11 01 44 100 185
18 09 2022 11 01 47 199 702
18 09 2022 11 01 49 340 530
18 09 2022 11 01 51 99 183
18 09 2022 11 01 53 111 434
18 09 2022 11 01 55 17 229
18 09 2022 11 01 57 24 488
18 09 2022 11 02 00 779 64
18 09 2022 11 02 01 255 124
18 09 2022 11 02 05 253 386
18 09 2022 11 02 10 117 83
18 09 2022 11 02 42 832 86
18 09 2022 11 02 43 258 122
18 09 2022 11 02 48 261 391
18 09 2022 11 02 49 90 316
18 09 2022 11 03 07 23 410
18 09 2022 11 03 13 169 300
18 09 2022 11 04 58 819 142
18 09 2022 11 05 12 293 408
18 09 2022 11 05 13 310 437
18 09 2022 11 05 20 358 376
18 09 2022 11 05 21 358 376
18 09 2022 11 05 26 483 246
18 09 2022 11 05 29 118 132
18 09 2022 11 05 31 127 385
18 09 2022 11 05 36 249 253
18 09 2022 11 05 38 659 56
18 09 2022 11 09 09 370 127
18 09 2022 11 09 10 367 199
18 09 2022 11 09 16 453 411
18 09 2022 11 09 17 470 454
18 09 2022 11 09 19 323 134
18 09 2022 11 09 21 328 380
18 09 2022 11 09 22 403 391
18 09 2022 11 09 24 429 423
18 09 2022 11 09 29 114 136
18 09 2022 11 09 32 130 210
18 09 2022 11 09 33 370 219
18 09 2022 11 09 35 117 137
18 09 2022 11 09 38 120 383
18 09 2022 11 09 59 435 418
18 09 2022 11 10 00 461 449
18 09 2022 11 10 09 116 285
18 09 2022 11 10 47 117 127
18 09 2022 11 10 48 119 379
18 09 2022 16 16 00 185 64
18 09 2022 16 16 02 406 129
18 09 2022 16 16 08 314 229
18 09 2022 16 17 07 267 123
18 09 2022 16 17 12 155 385
18 09 2022 16 17 14 253 157
18 09 2022 16 17 23 587 75
18 09 2022 16 17 28 256 194
18 09 2022 16 17 30 287 204
30 11 2022 22 58 19 117 139
30 11 2022 22 58 24 257 78
30 11 2022 22 58 27 143 251
30 11 2022 22 58 29 184 460
30 11 2022 22 58 39 249 101
30 11 2022 22 58 41 88 164
30 11 2022 22 58 42 87 163
30 11 2022 22 58 43 94 161
30 11 2022 22 58 45 29 251
30 11 2022 22 58 46 50 276
30 11 2022 22 58 47 150 25
30 11 2022 22 58 55 116 190
30 11 2022 22 58 57 135 402
30 11 2022 22 59 00 461 86
30 11 2022 22 59 00 461 86
30 11 2022 22 59 02 577 368
30 11 2022 22 59 02 577 368
30 11 2022 22 59 05 43 224
30 11 2022 22 59 05 43 224
30 11 2022 22 59 07 52 485
30 11 2022 22 59 07 52 485
30 11 2022 22 59 09 826 65
30 11 2022 22 59 09 826 65
30 11 2022 22 59 28 22 107
30 11 2022 22 59 28 22 107
30 11 2022 22 59 30 42 212
30 11 2022 22 59 30 42 212
30 11 2022 22 59 34 318 451
30 11 2022 22 59 34 318 451
30 11 2022 22 59 35 318 451
30 11 2022 22 59 35 318 451
30 11 2022 22 59 35 318 451
30 11 2022 22 59 35 318 451
30 11 2022 22 59 38 524 530
30 11 2022 22 59 38 524 530
30 11 2022 22 59 39 493 536
30 11 2022 22 59 39 493 536
30 11 2022 22 59 40 493 536
30 11 2022 22 59 40 493 536
30 11 2022 22 59 54 682 536
30 11 2022 22 59 54 682 536
30 11 2022 22 59 57 356 427
30 11 2022 22 59 57 356 427
30 11 2022 23 00 01 285 365
30 11 2022 23 00 01 285 365
30 11 2022 23 00 03 375 425
30 11 2022 23 00 03 375 425
30 11 2022 23 00 03 437 28
30 11 2022 23 00 03 437 28
30 11 2022 23 00 08 682 96
30 11 2022 23 00 08 682 96
30 11 2022 23 00 15 95 163
30 11 2022 23 00 22 951 393
30 11 2022 23 00 23 852 196
30 11 2022 23 00 25 652 124
30 11 2022 23 00 35 153 222
30 11 2022 23 00 43 833 317
30 11 2022 23 00 46 697 330
30 11 2022 23 00 50 1004 174
30 11 2022 23 00 58 551 360
30 11 2022 23 01 00 551 360
30 11 2022 23 01 01 572 384
30 11 2022 23 01 02 636 433
30 11 2022 23 01 17 66 218
30 11 2022 23 01 20 78 142
30 11 2022 23 01 24 150 223
30 11 2022 23 01 41 145 256
30 11 2022 23 01 59 182 250
30 11 2022 23 02 06 203 478
30 11 2022 23 02 43 26 114
30 11 2022 23 02 43 26 114
30 11 2022 23 02 48 43 413
30 11 2022 23 02 48 43 413
30 11 2022 23 02 51 34 98
30 11 2022 23 02 51 34 98
30 11 2022 23 02 53 25 420
30 11 2022 23 02 53 25 420
30 11 2022 23 02 54 23 114
30 11 2022 23 02 54 23 114
30 11 2022 23 02 55 37 389
30 11 2022 23 02 55 37 389
30 11 2022 23 02 57 411 46
30 11 2022 23 02 57 411 46
30 11 2022 23 02 59 521 236
30 11 2022 23 02 59 521 236
30 11 2022 23 04 01 527 365
30 11 2022 23 04 01 527 365
30 11 2022 23 04 07 300 392
30 11 2022 23 04 07 300 392
30 11 2022 23 04 10 49 183
30 11 2022 23 04 10 49 183
30 11 2022 23 04 12 48 481
30 11 2022 23 04 12 48 481
30 11 2022 23 04 14 460 105
30 11 2022 23 04 14 460 105
30 11 2022 23 04 15 721 197
30 11 2022 23 04 15 721 197
30 11 2022 23 04 17 567 119
30 11 2022 23 04 17 567 119
30 11 2022 23 04 31 41 21
30 11 2022 23 04 31 41 21
30 11 2022 23 04 33 41 21
30 11 2022 23 04 33 41 21
30 11 2022 23 04 34 50 21
30 11 2022 23 04 34 50 21
30 11 2022 23 04 38 25 54
30 11 2022 23 04 38 25 54
30 11 2022 23 04 57 491 517
30 11 2022 23 04 57 491 517
30 11 2022 23 04 58 491 517
30 11 2022 23 04 58 491 517
30 11 2022 23 05 12 540 540
30 11 2022 23 05 12 540 540
30 11 2022 23 05 19 478 523
30 11 2022 23 05 19 478 523
30 11 2022 23 05 19 478 523
30 11 2022 23 05 19 478 523
30 11 2022 23 05 20 485 500
30 11 2022 23 05 20 485 500
30 11 2022 23 05 21 485 500
30 11 2022 23 05 21 485 500
30 11 2022 23 05 23 382 522
30 11 2022 23 05 23 382 522
30 11 2022 23 05 28 490 524
30 11 2022 23 05 28 490 524
30 11 2022 23 06 04 203 115
30 11 2022 23 06 04 203 115
30 11 2022 23 06 06 177 127
30 11 2022 23 06 06 177 127
30 11 2022 23 06 15 259 248
30 11 2022 23 06 15 259 248
30 11 2022 23 06 15 259 248
30 11 2022 23 06 15 259 248
30 11 2022 23 06 16 259 248
30 11 2022 23 06 16 259 248
30 11 2022 23 06 25 373 333
30 11 2022 23 06 25 373 333
30 11 2022 23 06 25 373 333
30 11 2022 23 06 25 373 333
30 11 2022 23 06 26 219 186
30 11 2022 23 06 26 219 186
30 11 2022 23 06 27 199 173
30 11 2022 23 06 27 199 173
30 11 2022 23 06 34 58 131
30 11 2022 23 06 34 58 131
30 11 2022 23 07 22 459 262
30 11 2022 23 07 22 459 262
30 11 2022 23 07 22 459 262
30 11 2022 23 07 23 436 53
30 11 2022 23 07 23 436 53
30 11 2022 23 07 23 436 53
30 11 2022 23 07 25 458 394
30 11 2022 23 07 25 458 394
30 11 2022 23 07 25 458 394
30 11 2022 23 08 15 486 460
30 11 2022 23 08 15 486 460
30 11 2022 23 08 15 486 460
30 11 2022 23 08 17 113 484
30 11 2022 23 08 17 113 484
30 11 2022 23 08 17 113 484
30 11 2022 23 08 18 113 485
30 11 2022 23 08 18 113 485
30 11 2022 23 08 18 113 485
30 11 2022 23 08 20 145 511
30 11 2022 23 08 20 145 511
30 11 2022 23 08 20 145 511
30 11 2022 23 08 26 679 349
30 11 2022 23 08 26 679 349
30 11 2022 23 08 26 679 349
30 11 2022 23 08 28 769 463
30 11 2022 23 08 28 769 463
30 11 2022 23 08 28 769 463
30 11 2022 23 08 29 652 466
30 11 2022 23 08 29 652 466
30 11 2022 23 08 29 652 466
30 11 2022 23 08 30 525 464
30 11 2022 23 08 30 525 464
30 11 2022 23 08 30 525 464
30 11 2022 23 08 31 418 463
30 11 2022 23 08 31 418 463
30 11 2022 23 08 31 418 463
30 11 2022 23 08 32 305 485
30 11 2022 23 08 32 305 485
30 11 2022 23 08 32 305 485
30 11 2022 23 08 33 200 464
30 11 2022 23 08 33 200 464
30 11 2022 23 08 33 200 464
30 11 2022 23 08 36 41 224
30 11 2022 23 08 36 41 224
30 11 2022 23 08 36 41 224
30 11 2022 23 08 38 47 504
30 11 2022 23 08 38 47 504
30 11 2022 23 08 38 47 504
30 11 2022 23 08 41 277 71
30 11 2022 23 08 41 277 71
30 11 2022 23 08 41 277 71
30 11 2022 23 09 18 762 249
30 11 2022 23 09 18 762 249
30 11 2022 23 09 18 762 249
30 11 2022 23 10 56 895 514
30 11 2022 23 10 56 895 514
30 11 2022 23 10 56 895 514
30 11 2022 23 11 05 586 464
30 11 2022 23 11 05 586 464
30 11 2022 23 11 05 586 464
30 11 2022 23 11 07 61 130
30 11 2022 23 11 07 61 130
30 11 2022 23 11 07 61 130
30 11 2022 23 11 09 62 434
30 11 2022 23 11 09 62 434
30 11 2022 23 11 09 62 434
30 11 2022 23 11 10 20 341
30 11 2022 23 11 10 20 341
30 11 2022 23 11 10 20 341
30 11 2022 23 11 16 90 162
30 11 2022 23 11 16 90 162
30 11 2022 23 11 16 90 162
30 11 2022 23 11 28 116 413
30 11 2022 23 11 28 116 413
30 11 2022 23 11 28 116 413
30 11 2022 23 11 30 117 135
30 11 2022 23 11 30 117 135
30 11 2022 23 11 30 117 135
30 11 2022 23 11 30 117 135
30 11 2022 23 11 32 122 423
30 11 2022 23 11 32 122 423
30 11 2022 23 11 32 122 423
30 11 2022 23 11 32 122 423
30 11 2022 23 11 34 628 297
30 11 2022 23 11 34 628 297
30 11 2022 23 11 34 628 297
30 11 2022 23 11 34 628 297
30 11 2022 23 11 35 652 151
30 11 2022 23 11 35 652 151
30 11 2022 23 11 35 652 151
30 11 2022 23 11 35 652 151
30 11 2022 23 11 37 783 286
30 11 2022 23 11 37 783 286
30 11 2022 23 11 37 783 286
30 11 2022 23 11 37 783 286
30 11 2022 23 11 41 300 119
30 11 2022 23 11 41 300 119
30 11 2022 23 11 41 300 119
30 11 2022 23 11 41 300 119
30 11 2022 23 11 42 93 165
30 11 2022 23 11 42 93 165
30 11 2022 23 11 42 93 165
30 11 2022 23 11 42 93 165
30 11 2022 23 11 46 126 369
30 11 2022 23 11 46 126 369
30 11 2022 23 11 46 126 369
30 11 2022 23 11 46 126 369
30 11 2022 23 12 03 740 230
30 11 2022 23 12 03 740 230
30 11 2022 23 12 03 740 230
30 11 2022 23 12 03 740 230
30 11 2022 23 12 04 740 230
30 11 2022 23 12 04 740 230
30 11 2022 23 12 04 740 230
30 11 2022 23 12 04 740 230
30 11 2022 23 12 07 209 216
30 11 2022 23 12 07 209 216
30 11 2022 23 12 07 209 216
30 11 2022 23 12 07 209 216
30 11 2022 23 12 10 209 216
30 11 2022 23 12 10 209 216
30 11 2022 23 12 10 209 216
30 11 2022 23 12 10 209 216
30 11 2022 23 12 12 74 277
30 11 2022 23 12 12 74 277
30 11 2022 23 12 12 74 277
30 11 2022 23 12 12 74 277
30 11 2022 23 12 14 73 565
30 11 2022 23 12 14 73 565
30 11 2022 23 12 14 73 565
30 11 2022 23 12 14 73 565
30 11 2022 23 12 15 25 258
30 11 2022 23 12 15 25 258
30 11 2022 23 12 15 25 258
30 11 2022 23 12 15 25 258
30 11 2022 23 12 17 173 21
30 11 2022 23 12 17 173 21
30 11 2022 23 12 17 173 21
30 11 2022 23 12 17 173 21
30 11 2022 23 13 30 1001 236
30 11 2022 23 13 31 1005 238
30 11 2022 23 13 33 779 66
30 11 2022 23 13 35 796 63
30 11 2022 23 13 46 292 147
30 11 2022 23 13 55 824 387
30 11 2022 23 14 07 297 131
30 11 2022 23 14 09 95 301
30 11 2022 23 14 14 101 292
30 11 2022 23 14 18 366 118
30 11 2022 23 14 19 364 420
30 11 2022 23 14 21 288 138
01 12 2022 19 04 25 112 137
01 12 2022 19 04 29 284 163
01 12 2022 19 04 31 384 375
01 12 2022 19 04 33 419 575
01 12 2022 19 04 41 614 333
01 12 2022 19 04 48 320 228
01 12 2022 19 04 50 208 337
01 12 2022 19 05 12 730 93
01 12 2022 19 05 14 748 216
01 12 2022 19 05 18 787 62
01 12 2022 19 05 31 391 148
01 12 2022 19 05 42 226 123
01 12 2022 19 34 12 483 64
01 12 2022 19 34 14 149 244
01 12 2022 19 39 34 378 241
01 12 2022 19 39 35 396 270
01 12 2022 19 39 42 877 326
01 12 2022 19 39 43 877 326
01 12 2022 19 39 44 875 325
01 12 2022 19 39 54 704 284
01 12 2022 19 39 57 776 260
01 12 2022 19 40 16 102 124
01 12 2022 19 40 19 105 406
01 12 2022 19 40 22 98 124
01 12 2022 19 40 23 98 427
01 12 2022 19 40 26 522 64
01 12 2022 19 40 28 572 117
01 12 2022 19 40 29 263 73
01 12 2022 19 41 08 429 76
01 12 2022 19 41 25 670 178
01 12 2022 19 41 38 953 327
01 12 2022 19 41 40 386 183
01 12 2022 19 41 42 807 311
01 12 2022 19 41 43 772 106
01 12 2022 19 41 44 396 156
01 12 2022 19 41 46 392 473
01 12 2022 19 41 47 80 452
01 12 2022 19 41 55 47 181
01 12 2022 19 41 56 276 79
01 12 2022 19 41 57 387 36
01 12 2022 19 43 24 932 157
01 12 2022 19 43 25 912 117
01 12 2022 19 43 30 503 138
01 12 2022 19 43 32 797 97
01 12 2022 19 43 33 40 177
01 12 2022 19 43 34 32 118
01 12 2022 19 43 38 400 25
01 12 2022 19 43 40 260 96
01 12 2022 19 43 42 155 62
01 12 2022 19 44 04 153 67
01 12 2022 19 44 05 63 64
01 12 2022 19 44 06 262 70
01 12 2022 19 44 12 8 5
01 12 2022 19 44 26 402 204
01 12 2022 19 44 27 402 204
01 12 2022 19 44 54 605 67
01 12 2022 19 44 56 631 61
01 12 2022 19 45 27 419 317
01 12 2022 19 45 29 580 61
01 12 2022 19 45 31 587 333
01 12 2022 19 45 31 761 247
01 12 2022 19 45 40 698 366
01 12 2022 19 45 40 698 366
01 12 2022 19 45 43 850 355
01 12 2022 19 45 50 351 99
01 12 2022 19 45 51 162 171
01 12 2022 19 45 55 503 417
01 12 2022 19 46 17 616 220
01 12 2022 19 46 21 615 220
01 12 2022 19 46 50 626 145
01 12 2022 19 46 56 559 71
01 12 2022 19 47 12 639 85
01 12 2022 19 47 31 526 221
01 12 2022 19 47 34 545 248
01 12 2022 19 47 36 661 108
01 12 2022 19 47 40 804 377
01 12 2022 19 47 46 806 377
01 12 2022 19 47 49 674 368
01 12 2022 19 47 55 652 334
01 12 2022 19 47 57 636 404
01 12 2022 19 48 01 780 361
01 12 2022 19 48 04 306 261
01 12 2022 19 48 06 373 212
01 12 2022 19 48 29 479 320
01 12 2022 19 48 52 120 147
01 12 2022 19 48 53 125 172
01 12 2022 19 48 54 351 255
01 12 2022 19 48 56 468 261
01 12 2022 19 48 58 354 270
01 12 2022 19 49 00 367 260
01 12 2022 19 49 04 726 409
01 12 2022 19 49 08 772 409
01 12 2022 19 49 11 428 231
01 12 2022 19 49 19 52 152
01 12 2022 19 49 43 476 49
01 12 2022 19 49 48 477 32
01 12 2022 19 49 50 65 103
01 12 2022 19 49 52 68 401
01 12 2022 19 49 55 482 43
01 12 2022 19 49 57 456 84
01 12 2022 19 49 58 478 114
01 12 2022 19 50 00 473 26
03 12 2022 11 49 52 490 334
03 12 2022 11 49 54 729 258
03 12 2022 11 50 31 256 222
03 12 2022 11 50 36 254 222
03 12 2022 11 50 38 254 222
03 12 2022 11 50 40 183 141
03 12 2022 11 50 41 168 120
03 12 2022 11 50 48 143 157
03 12 2022 11 51 05 445 513
03 12 2022 11 51 08 496 522
03 12 2022 11 51 10 356 502
03 12 2022 11 51 17 903 300
03 12 2022 11 52 10 453 61
03 12 2022 11 52 11 320 311
03 12 2022 11 52 12 266 261
10 12 2022 03 41 43 413 251
10 12 2022 03 41 45 381 340
10 12 2022 13 18 19 532 426
10 12 2022 13 18 21 546 378
10 12 2022 13 18 22 283 265
10 12 2022 13 18 23 42 334
10 12 2022 13 18 23 41 336
10 12 2022 13 18 24 320 507
10 12 2022 13 18 24 322 507
10 12 2022 13 18 54 536 432
10 12 2022 13 18 55 431 352
10 12 2022 13 18 55 369 304
10 12 2022 13 18 55 291 249
10 12 2022 13 18 59 308 121
10 12 2022 13 18 59 308 121
10 12 2022 13 19 00 306 133
10 12 2022 13 19 49 189 260
10 12 2022 13 19 51 239 64
10 12 2022 13 19 59 458 103
10 12 2022 13 19 59 482 292
10 12 2022 13 20 00 508 360
10 12 2022 13 20 00 679 337
10 12 2022 13 20 02 50 410
10 12 2022 13 20 03 49 410
10 12 2022 13 20 10 204 176
10 12 2022 13 20 13 333 7
10 12 2022 13 20 21 270 25
10 12 2022 13 20 24 38 404
10 12 2022 13 20 26 391 285
